﻿19040 14:41:16 INFO  [Index=sitecore_core_index] Initializing IntervalAsynchronousUpdateStrategy with interval '00:01:00'.
19040 14:41:16 INFO  [Index=sitecore_core_index] Initializing SitecoreItemCrawler. DB:core / Root:/sitecore
19040 14:41:16 INFO  [Index=sitecore_master_index] Initializing SynchronousStrategy.
19040 14:41:16 INFO  [Index=sitecore_master_index] Initializing SitecoreItemCrawler. DB:master / Root:/sitecore
19040 14:41:16 INFO  [Index=sitecore_web_index] Initializing OnPublishEndAsynchronousStrategy.
19040 14:41:16 INFO  [Index=sitecore_web_index] Initializing SitecoreItemCrawler. DB:web / Root:/sitecore
19040 14:41:16 INFO  [Index=social_messages_master] Initializing SynchronousStrategy.
19040 14:41:16 INFO  [Index=social_messages_master] Initializing LuceneDatabaseCrawler. DB:master / Root:/sitecore/Social/Messages
19040 14:41:16 INFO  [Index=social_messages_web] Initializing OnPublishEndAsynchronousStrategy.
19040 14:41:16 INFO  [Index=social_messages_web] Initializing LuceneDatabaseCrawler. DB:web / Root:/sitecore/Social/Messages
22036 15:36:30 WARN  Hosting Environment Stop Requested : immediate=False
22036 15:36:30 WARN  [Index=sitecore_core_index] Crawling Stopped
22036 15:36:30 WARN  [Index=sitecore_master_index] Crawling Stopped
22036 15:36:30 WARN  [Index=sitecore_web_index] Crawling Stopped
22036 15:36:30 WARN  [Index=social_messages_master] Stop Indexing Requested - Stopping, Pausing and Resuming is not supported for AbstractProviderCrawler
22036 15:36:30 WARN  [Index=social_messages_master] Crawling Stopped
22036 15:36:30 WARN  [Index=social_messages_web] Stop Indexing Requested - Stopping, Pausing and Resuming is not supported for AbstractProviderCrawler
22036 15:36:30 WARN  [Index=social_messages_web] Crawling Stopped
22036 15:37:00 WARN  Hosting Environment Stop Requested : immediate=True
